…
```r
dim(pl_dat) # of songs
```

```
## [1] 92876    28
```

```r
pl_dat %>% distinct(playlist_name) # number of playlists
```

```
## # A tibble: 1,544 x 1
##    playlist_name     
##    <chr>             
##  1 Today's Top Hits  
##  2 RapCaviar         
##  3 mint              
##  4 Are & Be          
##  5 Rock This         
##  6 Hot Country       
##  7 ¡Viva Latino!     
##  8 New Music Friday  
##  9 Afternoon Acoustic
## 10 Peaceful Piano    
## # ... with 1,534 more rows
```

```r
pl_dat
```

```
## # A tibble: 92,876 x 28
##    playlist_name playlist_uri playlist_follow… playlist_num_tr… track_name
##    <chr>         <chr>                   <int>            <int> <chr>     
##  1 Today's Top … 37i9dQZF1DX…         20284811               50 Girls Lik…
##  2 Today's Top … 37i9dQZF1DX…         20284811               50 Jackie Ch…
##  3 Today's Top … 37i9dQZF1DX…         20284811               50 Lucid Dre…
##  4 Today's Top … 37i9dQZF1DX…         20284811               50 Youngblood
##  5 Today's Top … 37i9dQZF1DX…         20284811               50 Back To Y…
##  6 Today's Top … 37i9dQZF1DX…         20284811               50 lovely (w…
##  7 Today's Top … 37i9dQZF1DX…         20284811               50 Start Aga…
##  8 Today's Top … 37i9dQZF1DX…         20284811               50 All Mine  
##  9 Today's Top … 37i9dQZF1DX…         20284811               50 Solo (fea…
## 10 Today's Top … 37i9dQZF1DX…         20284811               50 Ocean (fe…
## # ... with 92,866 more rows, and 23 more variables: track_uri <chr>,
## #   artist_name <chr>, album_name <chr>, track_added_at <dttm>,
## #   track_popularity <int>, …
```
…
# checking to see if there are any 0 follower playlists
any(pl_dat$playlist_followers == 0)
```

```
## [1] FALSE
```

```r
# some playlists are duplicated, remove
pl_dat %>% distinct(playlist_name, playlist_followers) %>% count(playlist_name, sort = TRUE)
```

```
## # A tibble: 1,544 x 2
##    playlist_name             n
##    <chr>                 <int>
##  1 New Music Friday          3
##  2 Chill as Folk             2
##  3 Jukebox Joint             2
##  4 ¡Viva Latino!             1
##  5 '80s Rock Anthems         1
##  6 '90s Baby Makers          1
##  7 '90s Rock Renaissance     1
##  8 'Round Midnight           1
##  9 ’80s Hard Rock            1
## 10 ’80s Jam Session          1
## # ... with 1,534 more rows
```
…
# Occurrences of an artist within the top 33% of playlists
artist_count <- top_3rd_pl %>%
  # many of these playlists have reoccuring artists
  filter(!str_detect(playlist_name, "(This Is|Best)")) %>%
  count(artist_name) %>%
  arrange(desc(n))  %>%
  print(n = 10)
```

```
## # A tibble: 8,724 x 2
##    artist_name      n
##    <chr>        <int>
##  1 Ed Sheeran      47
##  2 Hozier          43
##  3 David Guetta    40
##  4 Kanye West      40
##  5 Avicii          38
##  6 Adele           35
##  7 Vance Joy       35
##  8 Khalid          33
##  9 Kygo            33
## 10 Maroon 5        32
## # ... with 8,714 more rows
```
…
# Number of unique genres
length(unique(gen_pl$gen))
```

```
## [1] 973
```

```r
gen_pl
```

```
## # A tibble: 243,720 x 27
##    playlist_name  playlist_follow… playlist_num_tr… track_name artist_name
##    <chr>                     <int>            <int> <chr>      <chr>      
##  1 Today's Top H…         20284811               50 Girls Lik… Maroon 5   
##  2 Today's Top H…         20284811               50 Jackie Ch… Tiësto     
##  3 Today's Top H…         20284811               50 Lucid Dre… Juice WRLD 
##  4 Today's Top H…         20284811               50 Youngblood 5 Seconds …
##  5 Today's Top H…         20284811               50 Back To Y… Selena Gom…
##  6 Today's Top H…         20284811               50 lovely (w… Billie Eil…
##  7 Today's Top H…         20284811               50 Start Aga… OneRepublic
##  8 Today's Top H…         20284811               50 All Mine   Kanye West 
##  9 Today's Top H…         20284811               50 Solo (fea… Clean Band…
## 10 Today's Top H…         20284811               50 Ocean (fe… Martin Gar…
## # ... with 243,710 more rows, and 22 more variables: album_name <chr>,
## #   track_added_at <dttm>, track_popularity <int>, danceability <dbl>,
## #   energy <dbl>, …
```
…
```r
# Look at counts and distribution?
gen_count <- gen_pl %>%
  # Remove duplicate artists and the associated genres trims down from ~900k to ~280k
  distinct(playlist_name, artist_name, playlist_followers, gen) %>%
  count(gen) %>% 
  arrange(desc(n)) %>% 
  na.omit()

gen_count
```

```
## # A tibble: 972 x 2
##    gen                  n
##    <chr>            <int>
##  1 pop               2545
##  2 folk-pop          1499
##  3 indie folk        1432
##  4 dance pop         1317
##  5 rock              1270
##  6 modern rock       1228
##  7 chamber pop       1139
##  8 indie pop         1005
##  9 new americana      915
## 10 stomp and holler   899
## # ... with 962 more rows
```
…
```
## 95% 
## 334
```

```r
gen_count <- gen_count %>% 
  mutate(top_one_perc = as.factor(ifelse(n >= quantile(gen_count$n, probs = c(0.99)), 1, 0)),
         top_five_perc = as.factor(ifelse(n >= quantile(gen_count$n, probs = c(0.95)), 1, 0)))

gen_count
```

```
## # A tibble: 972 x 4
##    gen                  n top_one_perc top_five_perc
##    <chr>            <int> <fct>        <fct>        
##  1 pop               2545 1            1            
##  2 folk-pop          1499 1            1            
##  3 indie folk        1432 1            1            
##  4 dance pop         1317 1            1            
##  5 rock              1270 1            1            
##  6 modern rock       1228 1            1            
##  7 chamber pop       1139 1            1            
##  8 indie pop         1005 1            1            
##  9 new americana      915 1            1            
## 10 stomp and holler   899 1            1            
## # ... with 962 more rows
```
…
frequent_gens_pl %>% select(playlist_name, gen, one_perc, five_perc, playlist_followers_log)
```

```
## # A tibble: 48,555 x 5
##    playlist_name    gen             one_perc five_perc playlist_followers…
##    <chr>            <chr>              <dbl>     <dbl>               <dbl>
##  1 Today's Top Hits dance pop              1         1                16.8
##  2 Today's Top Hits big room               0         1                16.8
##  3 Today's Top Hits rap                    0         1                16.8
##  4 Today's Top Hits boy band               0         0                16.8
##  5 Today's Top Hits pop                    1         1                16.8
##  6 Today's Top Hits pop rap                0         1                16.8
##  7 Today's Top Hits edm                    0         1                16.8
##  8 Today's Top Hits hip hop                0         1                16.8
##  9 Today's Top Hits neo mellow             0         1                16.8
## 10 Today's Top Hits indie poptimism        0         1                16.8
## # ... with 48,545 more rows
```
…
```r
data.frame(cor_descrip) %>% 
  select(playlist_followers_log) %>% 
  rownames_to_column() %>% 
  arrange(desc(abs(playlist_followers_log))) %>% 
  as_tibble() %>% 
  print(n = 10)
```

```
## # A tibble: 23 x 2
##    rowname                playlist_followers_log
##    <chr>                                   <dbl>
##  1 playlist_followers_log                 1     
##  2 energy_sd                             -0.248 
##  3 acousticness_sd                       -0.181 
##  4 valence_sd                            -0.175 
##  5 danceability_sd                       -0.139 
##  6 speechiness_sd                        -0.130 
##  7 liveness_sd                           -0.122 
##  8 liveness_mean                         -0.111 
##  9 valence_mean                          -0.104 
## 10 loudness_sd                           -0.0937
## # ... with 13 more rows
```
…
```r
# key mode
key_mode_counts <- pl_train %>%
  group_by(playlist_name) %>%
  count(key_mode) %>% 
  top_n(3) %>% 
  spread(key_mode, n)  %>%
  mutate_all(funs(replace(., is.na(.), 0)))

key_mode_counts
```

```
## # A tibble: 1,232 x 26
## # Groups:   playlist_name [1,232]
##    playlist_name       `A major` `A minor` `A# major` `A# minor` `B major`
##    <chr>                   <dbl>     <dbl>      <dbl>      <dbl>     <dbl>
##  1 ¡Viva Latino!               0         0          0          0         0
##  2 '80s Rock Anthems          11         0          0          0         0
##  3 '90s Baby Makers            0         4          0          4         0
##  4 '90s Rock Renaissa…        17         0          0          0         0
##  5 'Round Midnight             0         0          0          3         0
##  6 ’80s Hard Rock             10         0          0          0         0
##  7 ’80s Jam Session            0         0          0          0         6
##  8 (Descent) A Beginn…         0         0          0          2         0
##  9 #FlashbackFriday            0         0          0          0         0
## 10 #MakeitHappen               0         0          0          0         0
## # ... with 1,222 more rows, and 20 more variables: `B minor` <dbl>, `C
## #   major` <dbl>, `C minor` <dbl>, `C# major` <dbl>, `C# minor` <dbl>, …
```
…
key_mode_top3_majority
```

```
## # A tibble: 1,232 x 28
## # Groups:   playlist_name [1,232]
##    playlist_name     playlist_num_trac… playlist_follow… `A major_is_grea…
##    <chr>                          <int>            <int> <chr>            
##  1 ¡Viva Latino!                     50          8241418 0                
##  2 '80s Rock Anthems                100           146544 1                
##  3 '90s Baby Makers                  48           709113 0                
##  4 '90s Rock Renais…                157          1654946 1                
##  5 'Round Midnight                   22             1681 0                
##  6 ’80s Hard Rock                   104           786547 1                
##  7 ’80s Jam Session                  50           228107 0                
##  8 (Descent) A Begi…                 23              111 0                
##  9 #FlashbackFriday                  50              324 0                
## 10 #MakeitHappen                     30               62 0                
## # ... with 1,222 more rows, and 24 more variables: `A
## #   minor_is_greatest` <chr>, `A# major_is_greatest` <chr>, `A#
## #   minor_is_greatest` <chr>, `B major_is_greatest` <chr>, `B
## #   minor_is_greatest` <chr>, …
```
…
```r
ts_counts <- pl_train %>%
  group_by(playlist_name) %>%
  count(time_signature) %>% 
  top_n(1) %>% 
  spread(time_signature, n)  %>% 
  mutate_all(funs(replace(., is.na(.), 0)))

ts_counts
```

```
## # A tibble: 1,232 x 5
## # Groups:   playlist_name [1,232]
##    playlist_name           `0`   `3`   `4` `<NA>`
##    <chr>                 <dbl> <dbl> <dbl>  <dbl>
##  1 ¡Viva Latino!             0     0    48      0
##  2 '80s Rock Anthems         0     0   100      0
##  3 '90s Baby Makers          0     0    45      0
##  4 '90s Rock Renaissance     0     0   142      0
##  5 'Round Midnight           0     0    19      0
##  6 ’80s Hard Rock            0     0   104      0
##  7 ’80s Jam Session          0     0    50      0
##  8 (Descent) A Beginning     0     0    13      0
##  9 #FlashbackFriday          0     0    48      0
## 10 #MakeitHappen             0     0    28      0
## # ... with 1,222 more rows
```
…
one_perc_artists_full <- one_perc_artists_pl %>% 
  unnest(keywords) %>%
  spread(one_perc_artists, count) %>% 
  group_by(playlist_name) %>% 
  summarize_at(vars(-one_of("playlist_name", "artist_name")), funs(sum(., na.rm = TRUE))) %>%
    mutate_at(vars(-one_of("playlist_name")), funs(ifelse(. > 0, 1, 0)))

one_perc_artists_full
```

```
## # A tibble: 1,541 x 100
##    playlist_name  `AC/DC` Adele Aerosmith `Angus & Julia … `Ariana Grande`
##    <chr>            <dbl> <dbl>     <dbl>            <dbl>           <dbl>
##  1 ¡Viva Latino!        0     0         0                0               0
##  2 '80s Rock Ant…       1     0         1                0               0
##  3 '90s Baby Mak…       0     0         0                0               0
##  4 '90s Rock Ren…       0     0         0                0               0
##  5 'Round Midnig…       0     0         0                0               0
##  6 ’80s Hard Rock       1     0         1                0               0
##  7 ’80s Jam Sess…       0     0         0                0               0
##  8 (Descent) A B…       0     0         0                0               0
##  9 #FlashbackFri…       0     0         0                0               0
## 10 #Hotmess             0     0         0                0               0
## # ... with 1,531 more rows, and 94 more variables: Avicii <dbl>,
## #   Bahamas <dbl>, `Barns Courtney` <dbl>, `Bebe Rexha` <dbl>, `Ben
## #   Howard` <dbl>, …
```
…
artist_summary_stats <- full %>%
  group_by(playlist_name) %>%
  summarize_at(vars(c(artist_pop, track_popularity, artist_followers)),
               funs( mean = (mean(., na.rm = TRUE)),
                    # med = (median(., na.rm = TRUE)),
                    sd = (sqrt(var(., na.rm = TRUE)))))%>%
  mutate_at(vars(contains("artist_followers")), funs(log(.)))

artist_summary_stats 
```

```
## # A tibble: 1,541 x 7
##    playlist_name     artist_pop_mean track_popularity_… artist_followers_…
##    <chr>                       <dbl>              <dbl>              <dbl>
##  1 ¡Viva Latino!                83.2               83.8               15.0
##  2 '80s Rock Anthems            69.4               59.2               14.3
##  3 '90s Baby Makers             59.1               51.1               13.1
##  4 '90s Rock Renais…            65.2               53.8               14.3
##  5 'Round Midnight              49.2               41.1               11.6
##  6 ’80s Hard Rock               63.4               56.3               14.0
##  7 ’80s Jam Session             52.6               51.4               12.9
##  8 (Descent) A Begi…            65                 36.2               12.3
##  9 #FlashbackFriday             68.4               47.2               14.1
## 10 #Hotmess                     55.7               39.0               13.2
## # ... with 1,531 more rows, and 3 more variables: artist_pop_sd <dbl>,
## #   track_popularity_sd <dbl>, artist_followers_sd <dbl>
```
…
```r
audio_feats_descr <- full %>% 
  group_by(playlist_name) %>% 
  summarize_at(vars(danceability, energy, loudness, speechiness:duration_ms),
                      funs(avg = mean(., na.rm = TRUE),
                           # med = median(., na.rm = TRUE),
                           sd = sd(., na.rm = TRUE)))

audio_feats_descr  
```

```
## # A tibble: 1,541 x 21
##    playlist_name  danceability_avg energy_avg loudness_avg speechiness_avg
##    <chr>                     <dbl>      <dbl>        <dbl>           <dbl>
##  1 ¡Viva Latino!             0.763     0.730         -4.70          0.0971
##  2 '80s Rock Ant…            0.558     0.807         -7.56          0.0572
##  3 '90s Baby Mak…            0.662     0.480         -9.81          0.0553
##  4 '90s Rock Ren…            0.467     0.747         -7.66          0.0552
##  5 'Round Midnig…            0.473     0.115        -19.3           0.0397
##  6 ’80s Hard Rock            0.497     0.805         -7.49          0.0593
##  7 ’80s Jam Sess…            0.771     0.676         -9.80          0.0657
##  8 (Descent) A B…            0.216     0.0757       -28.2           0.0435
##  9 #FlashbackFri…            0.652     0.673         -6.60          0.0764
## 10 #Hotmess                  0.521     0.790         -5.65          0.0624
## # ... with 1,531 more rows, and 16 more variables: acousticness_avg <dbl>,
## #   instrumentalness_avg <dbl>, liveness_avg <dbl>, valence_avg <dbl>,
## #   tempo_avg <dbl>, …
```
…
# some interactions generate NA results, resulting in the row and thus playlist being omitted from the data. although 
# omitting the playlist is not an issue, the resultant dataframe does not merge correctly with the playlist aggregate data.
# to circumvent this, we change the na.action to pass, which retains the rows.

options("na.action" ="na.pass") # because we have many nas

descrip_inter <- model.matrix(data = audio_feats_descr, playlist_name ~ .^2)[, -1] %>% as_tibble()

descrip_inter
```

```
## # A tibble: 1,541 x 210
##    danceability_avg energy_avg loudness_avg speechiness_avg
##               <dbl>      <dbl>        <dbl>           <dbl>
##  1            0.763     0.730         -4.70          0.0971
##  2            0.558     0.807         -7.56          0.0572
##  3            0.662     0.480         -9.81          0.0553
##  4            0.467     0.747         -7.66          0.0552
##  5            0.473     0.115        -19.3           0.0397
##  6            0.497     0.805         -7.49          0.0593
##  7            0.771     0.676         -9.80          0.0657
##  8            0.216     0.0757       -28.2           0.0435
##  9            0.652     0.673         -6.60          0.0764
## 10            0.521     0.790         -5.65          0.0624
## # ... with 1,531 more rows, and 206 more variables:
## #   acousticness_avg <dbl>, instrumentalness_avg <dbl>,
## #   liveness_avg <dbl>, valence_avg <dbl>, tempo_avg <dbl>, …
```

```r
descrip_inter %>% miss_var_summary()
```

```
## # A tibble: 210 x 4
##    variable             n_miss pct_miss n_miss_cumsum
##    <chr>                 <int>    <dbl>         <int>
##  1 danceability_avg         37     2.40            37
##  2 energy_avg               37     2.40            74
##  3 loudness_avg             37     2.40           111
##  4 speechiness_avg          37     2.40           148
##  5 acousticness_avg         37     2.40           185
##  6 instrumentalness_avg     37     2.40           222
##  7 liveness_avg             37     2.40           259
##  8 valence_avg              37     2.40           296
##  9 tempo_avg                37     2.40           333
## 10 duration_ms_avg          37     2.40           370
## # ... with 200 more rows
```
…
key_mode_top3_majority_full
```

```
## # A tibble: 1,541 x 25
## # Groups:   playlist_name [1,541]
##    playlist_name    `A major_is_great… `A minor_is_grea… `A# major_is_gre…
##    <chr>                         <int>             <int>             <int>
##  1 ¡Viva Latino!                     0                 0                 0
##  2 '80s Rock Anthe…                  1                 0                 0
##  3 '90s Baby Makers                  0                 1                 0
##  4 '90s Rock Renai…                  1                 0                 0
##  5 'Round Midnight                   0                 0                 0
##  6 ’80s Hard Rock                    1                 0                 0
##  7 ’80s Jam Session                  0                 0                 0
##  8 (Descent) A Beg…                  0                 0                 0
##  9 #FlashbackFriday                  0                 0                 0
## 10 #Hotmess                          1                 0                 0
## # ... with 1,531 more rows, and 21 more variables: `A#
## #   minor_is_greatest` <int>, `B major_is_greatest` <int>, `B
## #   minor_is_greatest` <int>, `C major_is_greatest` <int>, `C
## #   minor_is_greatest` <int>, …
```
…
