…
```r
dat2 <- read_csv("output/dat.csv")
dim(dat2)
```

```
## [1] 1462  424
```

```r
dat2
```

```
## # A tibble: 1,462 x 424
##    playlist_name     playlist_followers playlist_num_trac… artist_pop_mean
##    <chr>                          <int>              <int>           <dbl>
##  1 Today's Top Hits            20284811                 50            85.3
##  2 RapCaviar                    9741110                 51            87.3
##  3 mint                         5015179                 50            66.7
##  4 Are & Be                     4355050                 45            75.9
##  5 Rock This                    4245616                 54            67.7
##  6 Hot Country                  4810160                 54            71.7
##  7 ¡Viva Latino!                8241418                 50            83.2
##  8 Afternoon Acoust…            2461311                 85            57.5
##  9 Peaceful Piano               4283807                162            60.1
## 10 Roots Rising                 1591936                119            56.8
## # ... with 1,452 more rows, and 420 more variables:
## #   track_popularity_mean <dbl>, artist_followers_mean <dbl>,
## #   artist_pop_sd <dbl>, track_popularity_sd <dbl>,
## #   danceability_avg <dbl>, …
```
…
high_cor_preds
```

```
## # A tibble: 237 x 2
##    preds                  log_playlist_followers
##    <chr>                                   <dbl>
##  1 log_playlist_followers                  1    
##  2 track_popularity_mean                   0.492
##  3 track_popularity_sd                    -0.260
##  4 energy_sd                              -0.249
##  5 playlist_num_tracks                     0.216
##  6 artist_pop_sd                          -0.189
##  7 acousticness_sd                        -0.186
##  8 valence_sd                             -0.178
##  9 danceability_sd                        -0.142
## 10 speechiness_sd                         -0.129
## # ... with 227 more rows
```
…
